chap4_line_graphs
…
uspopage_prop <- 
  uspopage %>% 
  group_by(Year) %>% 
  dplyr::mutate(Percent = Thousands / sum(Thousands) * 100) %>% 
  ungroup()

uspopage_prop

## # A tibble: 824 x 4
##     Year AgeGroup Thousands Percent
##    <int> <fct>        <int>   <dbl>
##  1  1900 <5            9181   12.1 
##  2  1900 5-14         16966   22.3 
##  3  1900 15-24        14951   19.6 
##  4  1900 25-34        12161   16.0 
##  5  1900 35-44         9273   12.2 
##  6  1900 45-54         6437    8.46
##  7  1900 55-64         4026    5.29
##  8  1900 >64           3099    4.07
##  9  1901 <5            9336   12.0 
## 10  1901 5-14         17158   22.1 
## # ... with 814 more rows
…
